<svg width="49" height="48" viewBox="0 0 49 48" fill="none" xmlns="http://www.w3.org/2000/svg">
<g clip-path="url(#clip0)">
<path d="M48.5 0H43.1L40.22 5.88C35.78 2.04 30.26 0 24.5 0C11.3 0 0.5 10.8 0.5 24C0.5 37.2 11.3 48 24.5 48C37.7 48 48.5 37.2 48.5 24C48.5 18.72 46.82 13.8 43.7 9.6L48.5 0ZM24.5 4.8C29.54 4.8 34.34 6.72 37.94 10.32L21.62 42.96C12.26 41.52 5.3 33.36 5.3 24C5.3 13.44 13.94 4.8 24.5 4.8ZM27.02 43.08L41.3 14.64C42.98 17.52 43.82 20.76 43.82 24.12C43.7 33.6 36.5 41.76 27.02 43.08Z" fill="#212121"/>
</g>
<defs>
<clipPath id="clip0">
<rect width="48" height="48" fill="white" transform="translate(0.5)"/>
</clipPath>
</defs>
</svg>
